dump.vcd
$date
	Mon Sep 15 22:37:04 2025
$end
$version
	ModelSim Version 10.5b
$end
$timescale
	1ps
$end

$scope module fsm_101011_tb $end
$var reg 1 ! clk $end
$var reg 1 " rst $end
$var reg 1 # x $end
$var wire 1 $ z $end

$scope module uut $end
$var parameter 4 % A $end
$var parameter 4 & B $end
$var parameter 4 ' C $end
$var parameter 4 ( D $end
$var parameter 4 ) E $end
$var parameter 4 * F $end
$var parameter 4 + G $end
$var wire 1 , clk $end
$var wire 1 - rst $end
$var wire 1 . x $end
$var reg 1 / z $end
$var reg 4 0 S [3:0] $end
$var reg 4 1 NS [3:0] $end
$upscope $end
$upscope $end
$enddefinitions $end
#0
$dumpvars
0!
1"
0#
0/
b0 0
b0 1
b0 %
b1 &
b10 '
b11 (
b100 )
b101 *
b110 +
0$
0.
1-
0,
$end
#5
1!
1,
#10
0"
0!
0-
0,
#15
1!
1,
#20
1#
0!
1.
0,
b1 1
#25
1!
1,
b1 0
#30
0#
0!
0.
0,
b10 1
#35
1!
1,
b10 0
b0 1
#40
1#
0!
1.
0,
b11 1
#45
1!
1,
b11 0
b1 1
#50
0#
0!
0.
0,
b100 1
#55
1!
1,
b100 0
b0 1
#60
1#
0!
1.
0,
b101 1
#65
1!
1,
b101 0
b110 1
#70
0!
0,
#75
1!
1,
b110 0
b0 1
1/
1$
#80
0#
0!
0.
0,
#85
1!
1,
b0 0
0/
0$
#90
1#
0!
1.
0,
b1 1
#95
1!
1,
b1 0
#100
0#
0!
0.
0,
b10 1
#105
1!
1,
b10 0
b0 1
#110
1#
0!
1.
0,
b11 1
#115
1!
1,
b11 0
b1 1
#120
0#
0!
0.
0,
b100 1
#125
1!
1,
b100 0
b0 1
#130
1#
0!
1.
0,
b101 1
#135
1!
1,
b101 0
b110 1
#140
0!
0,
#145
1!
1,
b110 0
b0 1
1/
1$
#150
0#
0!
0.
0,
#155
1!
1,
b0 0
0/
0$
#160
1#
0!
1.
0,
b1 1
#165
1!
1,
b1 0
#170
0#
0!
0.
0,
b10 1
#175
1!
1,
b10 0
b0 1
#180
1#
0!
1.
0,
b11 1
#185
1!
1,
b11 0
b1 1
#190
0#
0!
0.
0,
b100 1
#195
1!
1,
b100 0
b0 1
#200
1#
0!
1.
0,
b101 1
#205
1!
1,
b101 0
b110 1
#210
0!
0,
#215
1!
1,
b110 0
b0 1
1/
1$
#220
0#
0!
0.
0,
#225
1!
1,
b0 0
0/
0$
#230
1#
0!
1.
0,
b1 1
#235
1!
1,
b1 0
#240
0#
0!
0.
0,
b10 1
#245
1!
1,
b10 0
b0 1
#250
1#
0!
1.
0,
b11 1
#255
1!
1,
b11 0
b1 1
#260
0#
0!
0.
0,
b100 1
#265
1!
1,
b100 0
b0 1
#270
1#
0!
1.
0,
b101 1
#275
1!
1,
b101 0
b110 1
#280
0!
0,
#285
1!
1,
b110 0
b0 1
1/
1$
#290
0#
0!
0.
0,
#295
1!
1,
b0 0
0/
0$
